shape, size, even, TestResult
, Passed
Line,Large,Yes,202, Passed
Circle,Large,Yes,42_42, Failed
Square,Large,Yes,46_46_46_46, Failed
Isosceles,Small,Yes,3_2_3, Failed
,Small,Yes,, Failed
Isosceles,Large,Yes,51_100_51, Failed
Line,Small,No,9, Passed
Rectangle,Large,Yes,52_53_52_53, Failed
Ellipse,Large,Yes,36_46, Failed
Square,Large,Yes,46_46_47_47, Passed
Rectangle,Large,Yes,52_52_53_53, Passed
Equilateral,Large,No,3_3_3, Passed
Line,Small,Yes,204, Passed
Circle,Large,Yes,36_46, Failed
Square,Small,Yes,10_10_10_10, Passed
Isosceles,Large,Yes,80_150_80, Passed
Isosceles,Small,Yes,2_1_2, Passed
Isosceles,Large,Yes,50_150_50, Passed
Rectangle,Large,Yes,52_53_53_52, Failed
Ellipse,Small,Yes,0_1, Passed
Isosceles,Large,Yes,100_51_51, Failed
Ellipse,Small,Yes,1_0, Passed
Ellipse,Small,Yes,1_2, Failed
Isosceles,Large,Yes,150_50_150, Passed
Square,Small,Yes,0_0_0_0, Passed
Ellipse,Small,No,0_1, Passed
Line,Large,Yes,5000, Failed
Scalene,Small,Yes,2_3_4, Failed
Scalene,Large,Yes,200_300_400, Passed
, Failed
